…
Con los datos se pueden crear informes simples agrupando el serotipo de dengue y la fecha en que aparecieron. Es probable reemplazar la variable "Den" que contiene la información del serotipo con otras columnas que contengan información de hospitales, sexo, ciudad, entre otros

```
conteo_de_datos <- data %>% 
  group_by(Den, fecha = as.character(fecha)) %>% 
  summarise(n_cases = dplyr::n()) %>% ungroup()

conteo_de_datos$fecha = as.Date( conteo_de_datos$fecha) #convirtiendo a tipo fecha la columna fecha
conteo_de_datos

# A tibble: 390 × 3
   Den   fecha      n_cases
   <chr> <date>       <int>
 1 D1    2022-01-01       2
 2 D1    2022-01-02       2
 3 D1    2022-01-03       2
 4 D1    2022-01-05       2
 5 D1    2022-01-06       2
 6 D1    2022-01-08       2
 7 D1    2022-01-09       2
 8 D1    2022-01-11       2
 9 D1    2022-01-12       2
10 D1    2022-01-14       2
# … with 380 more rows
```
Es probable agrupar los casos por serotipo y por semana

```
conteo_de_datos_semanal <- data 
conteo_de_datos_semanal$semana <- format(data$fecha, "%V")

conteo_de_datos_semanal %>%
  group_by(Den, fecha = as.character(semana)) %>% 
  summarise(n_cases = dplyr::n()) %>% ungroup()

# A tibble: 68 × 3
   Den   fecha n_cases
   <chr> <chr>   <int>
 1 D1    01         10
 2 D1    02          8
 3 D1    03         10
 4 D1    04         10
 5 D1    05         10
 6 D1    06         10
 7 D1    07         10
 8 D1    08          8
 9 D1    09         10
10 D1    10         10
# … with 58 more rows
```
…
